<?xml version="1.0" standalone="no"?>
<!DOCTYPE svg PUBLIC "-//W3C//DTD SVG 20010904//EN"
 "http://www.w3.org/TR/2001/REC-SVG-20010904/DTD/svg10.dtd">
<svg version="1.0" xmlns="http://www.w3.org/2000/svg"
 width="720.000000pt" height="720.000000pt" viewBox="0 0 720.000000 720.000000"
 preserveAspectRatio="xMidYMid meet">
<metadata>
Created by potrace 1.11, written by Peter Selinger 2001-2013
</metadata>
<g transform="translate(0.000000,720.000000) scale(0.100000,-0.100000)"
fill="#000000" stroke="none">
<path d="M2489 5995 c-51 -89 -286 -497 -490 -850 -73 -126 -190 -329 -259
-450 -70 -121 -195 -337 -277 -480 -83 -143 -191 -330 -240 -415 -86 -150
-348 -604 -383 -665 -22 -39 -168 -290 -333 -575 -71 -124 -139 -241 -150
-260 -10 -19 -52 -91 -92 -160 -92 -158 -125 -217 -125 -225 0 -3 171 -4 381
-3 l381 3 95 165 c52 91 134 233 181 315 47 83 105 184 129 225 l43 75 1229 5
1229 5 -119 205 c-65 113 -127 220 -139 238 l-20 32 -940 0 c-517 0 -940 2
-940 5 0 7 -5 -3 357 625 50 85 142 245 205 355 64 110 139 241 168 290 29 50
76 133 106 186 l54 96 -2 669 -3 669 -46 -80z"/>
<path d="M2790 5397 l0 -669 82 -141 c44 -78 120 -209 168 -292 263 -455 292
-505 522 -905 95 -165 243 -421 303 -525 120 -207 276 -477 387 -670 63 -110
184 -319 268 -465 84 -146 163 -282 174 -304 12 -21 30 -42 41 -45 22 -8 751
-9 758 -1 2 3 -43 86 -101 185 -57 99 -165 286 -240 415 -218 379 -310 539
-372 645 -75 129 -578 1001 -600 1040 -15 27 -142 247 -300 520 -32 55 -99
172 -150 260 -51 88 -116 201 -145 250 -28 50 -114 198 -190 330 -76 132 -159
276 -185 320 -26 44 -93 161 -150 260 -157 274 -211 366 -241 415 l-29 45 0
-668z"/>
<path d="M3154 6048 c-2 -4 4 -22 15 -40 24 -43 69 -122 229 -398 l130 -225
633 -5 634 -5 46 -23 c75 -37 125 -87 160 -158 27 -54 32 -77 33 -138 0 -62
-4 -82 -32 -139 -36 -72 -87 -123 -161 -159 -45 -23 -52 -23 -498 -26 -478 -3
-471 -2 -439 -47 14 -21 108 -182 120 -206 3 -8 48 -86 100 -174 l94 -160 408
-3 c448 -3 504 1 644 50 268 94 473 292 579 558 82 206 84 468 6 675 -116 309
-374 534 -699 607 -88 20 -118 21 -1044 22 -525 1 -956 -2 -958 -6z"/>
<path d="M6673 6048 c-87 -14 -165 -76 -215 -170 -22 -42 -23 -52 -26 -347 -3
-281 -2 -303 13 -297 10 3 145 79 301 169 l283 162 1 243 c0 133 -3 243 -7
243 -33 5 -317 3 -350 -3z"/>
<path d="M6970 5365 c-30 -17 -127 -74 -215 -125 -88 -51 -197 -113 -242 -139
l-83 -46 0 -1837 0 -1838 304 0 304 0 0 2005 c0 1103 -3 2007 -7 2009 -3 1
-31 -11 -61 -29z"/>
</g>
</svg>
